[
    {
        "fields":{
            "first_name":"vagrant",
            "last_name":"vagrant",
            "is_admin":true,
            "last_login":"2015-09-05T15:20:24.630Z",
            "password":"pbkdf2_sha256$20000$W9M8y55APnrz$3RCCW2DkjWnL6/2/u8TOZOhNzLq/fmACYBI1GhiN0p0=",
            "email":"vagrant@vagrant.com",
            "date_joined":"2015-09-05T15:20:13.899Z"
        },
        "model":"api.customuser",
        "pk":1
    }
]